First Pass Interceptions - A Hugo website
…
Which teams have done it more than once?

first_play_picks %>% 
  group_by(pos_team) %>% 
  summarize(count=n()) %>% 
  arrange(desc(count))

## # A tibble: 40 × 2
##    pos_team       count
##    <chr>          <int>
##  1 Purdue             3
##  2 Ball State         2
##  3 BYU                2
##  4 Colorado State     2
##  5 Indiana            2
##  6 Tulsa              2
##  7 UAB                2
##  8 Alabama            1
##  9 Boston College     1
## 10 Bowling Green      1
## # … with 30 more rows
…
Which teams have done it more than once?

first_play_picks2 %>% 
  group_by(pos_team) %>% 
  summarize(count=n()) %>% 
  arrange(desc(count))

## # A tibble: 45 × 2
##    pos_team        count
##    <chr>           <int>
##  1 Purdue              3
##  2 Ball State          2
##  3 BYU                 2
##  4 Indiana             2
##  5 Tulsa               2
##  6 UAB                 2
##  7 Alabama             1
##  8 Bethune-Cookman     1
##  9 Boston College      1
## 10 Bowling Green       1
## # … with 35 more rows
…
